{
  "Version": "2012-10-17",
  "Statement":[
    {
      "Effect": "Allow",
      "Action": "secretsmanager:GetSecretValue",
      "Resource": "arn:aws:secretsmanager:${AWS_REGION}:${AWS_ACCOUNT}:secret:sendgrid/${SERVICE_ENV}/*"
    },
    {
      "Effect": "Allow",
      "Action": [
        "ssm:GetParameter",
        "ssm:GetParameters"
      ],
      "Resource": "arn:aws:ssm:${AWS_REGION}:${AWS_ACCOUNT}:parameter/email/${SERVICE_ENV}/*"
    }
  ]
}